<?xml version="1.0" encoding="UTF-8"?>
<svg width="120px" height="120px" viewBox="0 0 120 120" version="1.1" xmlns="http://www.w3.org/2000/svg" xmlns:xlink="http://www.w3.org/1999/xlink">
    <!-- Generator: Sketch 54.1 (76490) - https://sketchapp.com -->
    <title>btn_program_management_pushed</title>
    <desc>Created with Sketch.</desc>
    <g id="spec" stroke="none" stroke-width="1" fill="none" fill-rule="evenodd">
        <g id="Artboard" transform="translate(-1271.000000, -1216.000000)">
            <g id="btn_program_management_pushed" transform="translate(1271.000000, 1216.000000)">
                <rect id="Rectangle-Copy-102" fill="#000000" x="0" y="0" width="120" height="120" rx="6"></rect>
                <rect id="Rectangle-Copy-9" stroke="#FFFFFF" stroke-width="2" x="30.4285714" y="31.2367585" width="28" height="8.625" rx="4.3125"></rect>
                <rect id="Rectangle-Copy-24" stroke="#FFFFFF" stroke-width="2" x="30.4285714" y="81.1742585" width="28" height="8.625" rx="4.3125"></rect>
                <rect id="Rectangle-Copy-25" stroke="#FFFFFF" stroke-width="2" x="30.4285714" y="64.1742585" width="28" height="8.625"></rect>
                <path d="M32.4397059,52.5492585 L44.5153408,56.8008919 L56.4489298,52.5492585 L44.5153408,48.2976251 L32.4397059,52.5492585 Z" id="Rectangle-Copy-26" stroke="#FFFFFF" stroke-width="2"></path>
                <path d="M61.5,64.1742585 L61.5,72.9803603 C63.6487261,74.2817151 65.7713809,74.9242585 67.8794643,74.9242585 C70.1366231,74.9242585 72.410487,74.1876256 74.728257,72.6860559 C77.4276915,70.9959296 80.199088,70.1430085 83.0267857,70.1430085 C85.4015303,70.1430085 87.9165856,70.7444802 90.5714286,71.9374311 L90.5714286,64.1742585 L61.5,64.1742585 Z" id="Rectangle-Copy-29" stroke="#FFFFFF" stroke-width="2"></path>
                <rect id="Rectangle-Copy-30" fill="#FFFFFF" x="43.3571429" y="40.8617585" width="2.14285714" height="7.4375"></rect>
                <rect id="Rectangle-Copy-31" fill="#FFFFFF" x="43.3571429" y="56.7992585" width="2.14285714" height="7.4375"></rect>
                <rect id="Rectangle-Copy-32" fill="#FFFFFF" x="75.5" y="53.6117585" width="2.14285714" height="10.625"></rect>
                <rect id="Rectangle-Copy-33" fill="#FFFFFF" x="54.0714286" y="51.4867585" width="23.5714286" height="2.125"></rect>
                <rect id="Rectangle-Copy-34" fill="#FFFFFF" x="43.3571429" y="73.7992585" width="2.14285714" height="7.4375"></rect>
                <rect id="Rectangle-Copy-35" stroke="#FFFFFF" stroke-width="2" fill-rule="nonzero" x="24" y="19" width="73" height="83" rx="6"></rect>
            </g>
        </g>
    </g>
</svg>