<?xml version="1.0" encoding="UTF-8"?>
<svg width="120px" height="120px" viewBox="0 0 120 120" version="1.1" xmlns="http://www.w3.org/2000/svg" xmlns:xlink="http://www.w3.org/1999/xlink">
    <!-- Generator: Sketch 53.2 (72643) - https://sketchapp.com -->
    <title>btn_app_tm_pushed</title>
    <desc>Created with Sketch.</desc>
    <g id="spec" stroke="none" stroke-width="1" fill="none" fill-rule="evenodd">
        <g id="Artboard" transform="translate(-731.000000, -1216.000000)">
            <g id="btn_app_tm_pushed" transform="translate(731.000000, 1216.000000)">
                <rect id="Rectangle-Copy-93" fill="#000000" x="0" y="0" width="120" height="120" rx="6"></rect>
                <g id="Group-69" transform="translate(32.000000, 19.000000)" stroke="#FFFFFF" stroke-width="2">
                    <g id="Group-68" transform="translate(0.000000, -0.000000)">
                        <g id="Group-67">
                            <path d="M5.26666667,39.5333333 L21.4,39.5333333 L21.4,38.3333333 L5.26666667,38.3333333 L5.26666667,39.5333333 Z" id="Path-Copy-12"></path>
                            <path d="M1,35.2666667 L25.6666667,35.2666667 L25.6666667,29.8 L1,29.8 L1,35.2666667 Z" id="Path-Copy-14"></path>
                            <path d="M17.9220503,1 L8.74377136,1 L8.74377136,9.24416488 L8.72654341,9.42898667 L5.47225833,26.7333333 L21.1943542,26.7333333 L17.9392864,9.42903005 L17.9220503,9.24416488 L17.9220503,1 Z" id="Path-Copy-16"></path>
                            <path d="M1,53.4 L25.6666667,53.4 L25.6666667,42.6 L1,42.6 L1,53.4 Z" id="Path-Copy-18"></path>
                            <path d="M18.6263183,56.4666667 L9.10614417,56.4666667 L9.10614417,71.9482022 L5.26666667,75.6527135 L5.26666667,77.9333333 L6.1464925,77.9333333 L6.1464925,76.0802373 L9.46963478,76.0802373 L11.3898089,77.9333333 L15.7464925,77.9333333 L15.7464925,76.0802373 L19.0706374,76.0802373 L20.9899408,77.9333333 L22.4666667,77.9333333 L22.4666667,75.6527803 L18.6263183,71.9482691 L18.6263183,56.4666667 Z" id="Path-Copy-20"></path>
                            <path d="M29.8078312,61.9333333 L31.0946048,61.9333333 L33.4037325,55.4429393 L39.1168525,53.0729131 L45.3360362,56.0284062 L48.5677797,52.798351 L45.6122703,46.575028 L47.9800356,40.8595682 L54.4666667,38.5517376 L54.4666667,33.980076 L47.9800865,31.6738881 L45.6122819,25.9583333 L48.5678705,19.734031 L45.3359578,16.5025182 L39.1169114,19.4587583 L33.4037762,17.0887258 L31.094664,10.6 L29.8,10.6 L29.8,22.4664205 C36.8870905,22.9791381 42.4810358,28.8979654 42.4810358,36.1182703 C42.4810358,43.3396056 36.8877507,49.2579882 29.8005752,49.7709276 L29.8078312,61.9333333 Z" id="Fill-50-Copy-2"></path>
                        </g>
                    </g>
                </g>
            </g>
        </g>
    </g>
</svg>