<svg xmlns="http://www.w3.org/2000/svg" xmlns:xlink="http://www.w3.org/1999/xlink" xmlns:ev="http://www.w3.org/2001/xml-events"
		xmlns:v="http://schemas.microsoft.com/visio/2003/SVGExtensions/" width="3.19939in" height="3.19152in"
		viewBox="0 0 230.356 229.789" xml:space="preserve" color-interpolation-filters="sRGB" class="st2">



		<g id="shape1-1" v:mID="1" v:groupContext="shape" transform="translate(0.375,-0.375)">
			<rect fill="#D7D7D7"   stroke='rgba(49,163,0,0.7)' x="0" y="0.749994" width="229.606" height="229.039" class="st1"/>
		</g>
</svg>
