<svg version="1.1"
	 id="Layer_1" xmlns:v="http://schemas.microsoft.com/visio/2003/SVGExtensions/" xmlns:ev="http://www.w3.org/2001/xml-events"
	 xmlns="http://www.w3.org/2000/svg" xmlns:xlink="http://www.w3.org/1999/xlink" x="0px" y="0px" width="86.457px"
	 height="25.512px" viewBox="18.24 18.24 86.457 25.512" enable-background="new 18.24 18.24 86.457 25.512" xml:space="preserve">
		
		<linearGradient id="anim"  fy="0">
      <stop offset="0" stop-color="#148F01">
		</stop>
		<stop offset=".7" stop-color="#9AFC8A">
		</stop>
    </linearGradient>>
        
        <g transform="translate(18.24,-18.24)">
			<g>
				<path fill="#646464" d="M0,37.48c0-0.55,0.45-1,1-1h84.457c0.55,0,1,0.45,1,1v23.512c0,0.55-0.45,1-1,1H1c-0.55,0-1-0.45-1-1
					V37.48z" >
					
        </path>
			</g>
		</g>
</svg>
